napa_network_analysis
…
Create data frame for BACI analysis

sites_summary <- bee_data_clean %>%
group_by (site, year) %>%
    summarise(sampling_events = length(unique(start_date)), no_spp = length(unique(combined_name)), abund_ = sum(number))

`summarise()` has grouped output by 'site'. You can override using the
`.groups` argument.

sites_summary <- sites_summary %>%
  left_join(site_data, by = "site")

sites_summary

# A tibble: 24 × 6
# Groups:   site [8]
   site               year sampling_events no_spp abund_ treatment
   <chr>             <int>           <int>  <int>  <int> <chr>    
 1 Bouverie Preserve  2002               8     24    157 Impact   
 2 Bouverie Preserve  2003               7     26     95 Impact   
 3 Bouverie Preserve  2018               8     17     89 Impact   
 4 Goode              2002              11     43    306 Control  
 5 Goode              2003               8     30    192 Control  
 6 Goode              2018               9     28    137 Control  
 7 Hudson             2002               8     21    283 Impact   
 8 Hudson             2003               7     27    165 Impact   
 9 Hudson             2018              10     21     70 Impact   
10 Quintessa          2002               7     17     72 Control  
# ℹ 14 more rows
…
